<?xml version="1.0" encoding="UTF-8"?>
<svg width="12" height="12" version="1.1" viewBox="0 0 12 12" xmlns="http://www.w3.org/2000/svg">
  <defs>
    <clipPath id="clip1">
      <path d="m0 0h80.398v80.398h-80.398z"/>
    </clipPath>
  </defs>
  <g class="svg-icon gemini-grey" fill="none" stroke="#808080">
    <g transform="matrix(.14925 0 0 .14925 .00024501 .00024502)" clip-path="url(#clip1)" stroke-linecap="round" stroke-width="66.985">
      <path transform="matrix(.1 0 0 -.1 0 80.4)" d="m736.99 67.008c-101.84 58.789-217.38 89.766-335 89.766-117.62 0-233.12-30.977-335-89.766"/>
      <path transform="matrix(.1 0 0 -.1 0 80.4)" d="m736.99 737.01c-101.84-58.828-217.38-89.766-335-89.766-117.62 0-233.12 30.938-335 89.766"/>
    </g>
    <path d="m8.4999 2.0221v7.9557" stroke-width=".99975"/>
    <path d="m3.5 2.0221v7.9557" stroke-width=".99975"/>
  </g>
</svg>
