<svg width="16" height="16" version="1.1" viewBox="0 0 16 16" xmlns="http://www.w3.org/2000/svg">
  <g fill="none" fill-rule="evenodd">
    <path class="svg-icon tor-grey" d="m8.0164 14.545v-0.96978c3.0719-0.0089 5.5592-2.5013 5.5592-5.5754 0-3.0739-2.4873-5.5663-5.5592-5.5752v-0.96978c3.6075 0.00909 6.5288 2.9355 6.5288 6.545 0 3.6097-2.9213 6.5363-6.5288 6.5452zm0-3.3944c1.7327-0.009092 3.1351-1.4158 3.1351-3.1509 0-1.7349-1.4024-3.1415-3.1351-3.1506v-0.96956c2.2685 0.00887 4.1049 1.8498 4.1049 4.1202 0 2.2707-1.8364 4.1115-4.1049 4.1204zm0-4.8469c0.92942 0.00887 1.6805 0.76443 1.6805 1.6961 0 0.93186-0.75112 1.6874-1.6805 1.6963zm-8.0164 1.6961c0 4.4185 3.5815 8.0002 8 8.0002 4.4183 0 8-3.5817 8-8.0002 0-4.4183-3.5817-7.9998-8-7.9998-4.4185 0-8 3.5815-8 7.9998z" fill="#808080"/>
  </g>
</svg>
